new.name,rbiom
Acant.robus,Acant.verna
Acant.verna,Acant.verna
Acant.venus,Acant.verna
Acantl.curvi,Daphn.galea
Acrop.harpa,Chydo.sphae
Algla.lepto,Lepto.minut
Alona.sp,Chydo.sphae
Alone.sp,
Alonop.ame,Chydo.sphae
Arcto.dorsa,
Arcto.flori,
Bosmi.longi,Bosmi.longi
Bosmina.sp,Bosmi.longi
Bosminop.deite,
Bytho.long,
Cal.copepodite,
Calanoida,Lepto.minut
Campt.sp.,
Canth.staph,
Cerio.lacus,
Cerio.megal,Cerio.lacus
Cerio.pulch,Cerio.lacus
Cerio.quadr,Cerio.lacus
Cerio.retic,Cerio.lacus
Cerio.rigau,Cerio.lacus
Cerio.sp.,Cerio.lacus
Cerio.dubia,Cerio.lacus
Cerio.affi,Cerio.lacus
Cerio.laticau,Cerio.lacus
Chydo.sp,Chydo.sphae
Chydo.bicor,Chydo.sphae
Chydo.favif,Chydo.sphae
Chydo.sphae,Chydo.sphae
Cyc.copepodite,
Cyclo.abyss,Cyclo.sp
Cyclo.bohat,Cyclo.sp
Cyclo.kolen,Cyclo.sp
Cyclo.scuti,Cyclo.sp
Cyclo.stren,Cyclo.sp
Cyclo.vicin,Cyclo.sp
Cyc.male,Cyclo.sp
Cyclopoida,Cyclo.sp
Daphn.dubia,Daphn.galea
Daphn.ambig,Daphn.cataw
Daphn.cataw,Daphn.cataw
Daphn.cucul,Daphn.cataw
Daphn.denti,Daphn.galea
Daphn.galea,Daphn.galea
Daphn.hyali,Daphn.cataw
Daphn.parv,Daphn.cataw
Daphn.puli,Daphn.cataw
Daphn.laevi,Daphn.cataw
Daphn.lumho,Daphn.cataw
Daphn.pulex,Daphn.cataw
Daphn.remis,Daphn.galea
Daphn.retro,Daphn.retro
Daphn.spina,Daphn.cataw
Daphn.thora,Daphn.cataw
Daphnia.sp.,Daphn.cataw
Diacy.bipif,Diacy.bicus
Diacy.bicus,Diacy.bicus
Diacy.navus,Diacy.bicus
Diacyclops.sp,Diacy.bicus
Diaph.sp,Diaph.leuch
Diaph.birgei,Diaph.leuch
Diaph.leuch,Diaph.leuch
Diaph.brachy,Diaph.leuch
Diapt.copep,
Dispa.acuti,
Drepa.denta,
Episc.lacus,Lepto.minut
Epischura.sp,Lepto.minut
Eubos.sp,Bosmi.longi
Eubo.mari,Bosmi.longi
Eubo.long,Bosmi.longi
Eubo.tubi,Bosmi.longi
Eubo.corr,Bosmi.longi
Eucyc.agili,Cyclo.sp
Eucyc.elega,Cyclo.sp
Eucyc.neoma,Cyclo.sp
Eucyc.serru,Cyclo.sp
Eucyc.spera,Cyclo.sp
Eucyc.prion,Cyclo.sp
Eucyclops.sp,Cyclo.sp
Eudiapt.graci,Cerio.lacus
Eurycercus.sp,Cerio.lacus
Euryt.velox,
Eurytemora.sp,
Harpacticoida,Cyclo.sp
Holop.amazo,Holop.gibbe
Holop.gibbe,Holop.gibbe
Holopedium.sp,Holop.gibbe
Ilyocryptus.sp,Daphn.cataw
Laton.setif,Diaph.leuch
Latona.sp,Diaph.leuch
Lepto.ashla,Lepto.minut
Lepto.kindt,Lepto.kindt
Lepto.minut,Lepto.minut
Lepto.sicil,Lepto.minut
Lepto.scloi,Lepto.minut
Leydi.acant,
Leydigia.sp,
Limno.macru,
Macrocyclops.sp,Mesoc.edax
Macrothrix.sp,Mesoc.edax
Mcycl.albid,Mesoc.edax
Megac.gigas,Mesoc.edax
Megac.virid,Mesoc.edax
Mesoc.edax,Mesoc.edax
Mesoc.leukar,Mesoc.edax
Mesocyclops.sp,Mesoc.edax
Microc.rub,Mesoc.edax
Microc.var,Mesoc.edax
Moina.sp,Moina.sp
Moina.macro,Moina.sp
Mthrx.latic,
Mthrx.rosea,
Neobos.sp,Bosmi.longi
Neobos.hag,Bosmi.longi
Neobos.huar,Bosmi.longi
Ophryo.graci,Daphn.galea
nauplii,Cop.naup
Onycho.sang,Skist.orego
Ophryoxus.sp,Daphn.galea
Ortho.modes,Daphn.galea
Orthocyclops.sp,
Oxy.brevi,Chydo.sphae
Paracy.affi,Mesoc.edax
Paracyclops.sp,Mesoc.edax
Paral.pigra,
Pleur.procu,
Pleuroxus.sp,
Polyp.pedic,Polyp.pedic
Rotifer,
Scapholeberis.sp,
Senec.calan,
Sida.cryst,Sida.cryst
Simoc.serru,
Simoc.vetul,
Simocephalus.sp,
Sinobos.sp,Bosmi.longi
Sino.freyi,Bosmi.longi
Sino.liederi,Bosmi.longi
Skist.orego,Skist.orego
Skist.reig,Skist.orego
Skist.palli,Skist.orego
Skistodiaptomus.sp,Skist.orego
Therm.crass,
Therm.oitho,
Tropo.mexi,Mesoc.edax
Tropocyclops.sp,Mesoc.edax
Cal.cop,Lepto.minut
Cyclo.cop,Mesoc.edax
Clado_imm,Lepto.minut
Unkno.clado,
Unkno.copep,
Harpa.cop,Mesoc.edax
